<svg width="820" height="820" viewBox="0 0 820 820" fill="none" xmlns="http://www.w3.org/2000/svg">
<path d="M400 200C400 310.38 310.39 400 200 400C89.62 400 0 310.38 0 200C0 89.62 89.62 0 200 0C310.39 0 400 89.62 400 200Z" fill="#831515"/>
<path d="M820 200C820 310.38 730.39 400 620 400C509.62 400 420 310.38 420 200C420 89.62 509.62 0 620 0C730.39 0 820 89.62 820 200Z" fill="#C99917"/>
<path d="M820 620C820 730.38 730.39 820 620 820C509.62 820 420 730.38 420 620C420 509.62 509.62 420 620 420C730.39 420 820 509.62 820 620Z" fill="#831515"/>
<path d="M400 620C400 730.38 310.39 820 200 820C89.62 820 0 730.38 0 620C0 509.62 89.62 420 200 420C310.39 420 400 509.62 400 620Z" fill="#C99917"/>
</svg>
