<svg width="1024" height="1024" viewBox="0 0 1024 1024" fill="none" xmlns="http://www.w3.org/2000/svg">
<circle cx="512" cy="512" r="512" fill="#181C1E"/>
<path d="M502 302C502 412.38 412.39 502 302 502C191.62 502 102 412.38 102 302C102 191.62 191.62 102 302 102C412.39 102 502 191.62 502 302Z" fill="#831515"/>
<path d="M922 302C922 412.38 832.39 502 722 502C611.62 502 522 412.38 522 302C522 191.62 611.62 102 722 102C832.39 102 922 191.62 922 302Z" fill="#C99917"/>
<path d="M922 722C922 832.38 832.39 922 722 922C611.62 922 522 832.38 522 722C522 611.62 611.62 522 722 522C832.39 522 922 611.62 922 722Z" fill="#831515"/>
<path d="M502 722C502 832.38 412.39 922 302 922C191.62 922 102 832.38 102 722C102 611.62 191.62 522 302 522C412.39 522 502 611.62 502 722Z" fill="#C99917"/>
</svg>
