{
	"locale_name": "",
	"utils": {
		"unknown_user": "",
		"anonymous": "",
		"deleted": "",
		"maintenance": "",
		"colon": ""
	},
	"game": {
		"board": "",
		"game_id": "",
		"turn": "",
		"whoever_join": "",
		"tie": "",
		"win": "",
		"win_forfeit": "",
		"elo": "",
		"coins": "",
		"forfeit": "",
		"cancel": "",
		"cancel_progress": "",
		"archived": ""
	},
	"subscription": {
		"player": {
			"error_self": "",
			"on": "",
			"msg_cancel": "",
			"msg_forfeit": "",
			"msg_win": "",
			"msg_tie": ""
		},
		"spectator": {
			"on": "",
			"msg_win": "",
			"msg_tie": ""
		},
		"common": {
			"off": "",
			"join": "",
			"msg_move": ""
		}
	},
	"cmd_manager": {
		"banned": {
			"msg": "",
			"contest": ""
		},
		"missing_emojis_perm": "",
		"denied_perm": {
			"guild": "",
			"channel": "",
			"guild_and_channel": ""
		}
	},
	"cmd": {
		"anon": {
			"description": "",
			"on": "",
			"off": ""
		},
		"claim": {
			"description": "",
			"game_id_description": "",
			"no_opponent": "",
			"no_move": "",
			"your_turn": "",
			"wait": ""
		},
		"disc": {
			"description": "",
			"embed": {
				"title": "",
				"description0": "",
				"description1": "",
				"current_main": "",
				"current_secondary": ""
			}
		},
		"delete-data": {
			"description": "",
			"not_registered": "",
			"confirm": {
				"msg": "",
				"btn": ""
			},
			"validation": ""
		},
		"game_action": {
			"format_error": "",
			"game_not_found": "",
			"game_terminated": ""
		},
		"help": {
			"description": "",
			"embed": {
				"title": "",
				"section": {
					"game": "",
					"utility": "",
					"customization": "",
					"management": ""
				},
				"management_info": ""
			}
		},
		"invite": {
			"description": "",
			"text": "",
			"btn_title": ""
		},
		"lead": {
			"description": "",
			"global": {
				"description": "",
				"no_ranked": "",
				"embed_title": ""
			},
			"guild": {
				"description": "",
				"no_ranked": "",
				"embed_title": "",
				"not_in_guild": ""
			},
			"embed_field": {
				"value": ""
			}
		},
		"list": {
			"description": "",
			"no_games": "",
			"embed": {
				"title": "",
				"your_turn": "",
				"his_turn": ""
			}
		},
		"money": {
			"description": "",
			"embed": {
				"wallet": "",
				"tip1": {
					"title": "",
					"text": ""
				},
				"tip2": {
					"title": "",
					"text": ""
				}
			}
		},
		"play": {
			"description": "",
			"opponent_description": "",
			"quota": "",
			"opponent_is_bot": ""
		},
		"resume": {
			"description": "",
			"game_id_description": ""
		},
		"rules": {
			"description": "",
			"embed": {
				"title": "",
				"game": {
					"title": "",
					"text": ""
				},
				"fair_play": {
					"title": "",
					"text": ""
				},
				"ranking": {
					"title": "",
					"text": ""
				}
			}
		},
		"server-conf": {
			"description": "",
			"lang": {
				"description": "",
				"title": ""
			},
			"img": {
				"description": "",
				"title": "",
				"default": "",
				"invalid_url": "",
				"not_img": "",
				"ok": "",
				"win_preview": "",
				"tie_preview": ""
			}
		},
		"shop": {
			"description": "",
			"coins": "",
			"gems": "",
			"embed": {
				"title": "",
				"wallet": "",
				"items": "",
				"howto_coins": {
					"title": "",
					"text": ""
				},
				"howto_gems": {
					"title": "",
					"text": ""
				},
				"available": "",
				"insufficient_coins": "",
				"translator_disc": "",
				"sold": ""
			}
		},
		"stats": {
			"description": "",
			"user_description": "",
			"anonymous": "",
			"not_ranked": {
				"you": "",
				"he": ""
			},
			"embed": {
				"title": "",
				"rank": "",
				"elo": "",
				"win_rate": "",
				"wins": "",
				"loses": "",
				"ties": "",
				"games": ""
			}
		},
		"support": {
			"description": "",
			"no_server": ""
		}
	},
	"dashboard": {
		"translation_progress": "",
		"translation_contribution": "",
		"win_img": "",
		"tie_img": ""
	}
}
