{
	"locale_name": "Lietuvių",
	"utils": {
		"unknown_user": "nežinomas",
		"anonymous": "anonimas",
		"deleted": "ištrintas",
		"maintenance": "🚧 Man atliekama techninė priežiūra. Netrukus išsijungsiu. 🚧",
		"colon": ":"
	},
	"game": {
		"board": "Lenta",
		"game_id": "Žaidimo ID",
		"turn": "Eilė",
		"whoever_join": "Kas nori prisijungti",
		"tie": "Tai yra lygiosios!",
		"win": "{winner} laimėjo!",
		"win_forfeit": "{winner} laimėjo pasidavimu!",
		"elo": "elo",
		"coins": "{count, plural, =1{moneta} other{monetos}}",
		"forfeit": "pasiduoti",
		"cancel": "atšaukti",
		"cancel_progress": "atšaukti (1/2)",
		"archived": "Vienas ar daugiau žaidėjų šiame žaidime buvo ištrinti. Žaidimas dabar užšaldytas."
	},
	"subscription": {
		"player": {
			"error_self": "Jūs negalite užsiprenumeruoti, kai žaidžiate prieš save.",
			"on": "Dabar gausite DM (jei jų neužblokavote), kai jūsų priešininkas atliks ėjimą! Norėdami atšaukti prenumeratą, dar kartą spustelėkite varpelį 🔔.",
			"msg_cancel": "{player} nori atšaukti paskutinį žingsnį.",
			"msg_forfeit": "{player} pasidave. Tu laimėjai! 🎉",
			"msg_win": "{player} laimėjo žaidimą. 😞",
			"msg_tie": "{player} ir jūs sužaidėte lygiosiomis."
		},
		"spectator": {
			"on": "Dabar gausite DM (jei jų neužblokavote), kai žaidėjas atliks ėjimą! Norėdami atšaukti prenumeratą, dar kartą spustelėkite varpelį 🔔.",
			"msg_win": "{player} laimėjo žaidimą!",
			"msg_tie": "{player0} ir {player1} sužaidė lygiosiomis."
		},
		"common": {
			"off": "Nebegaunate DM už šį žaidimą.",
			"join": "{player} prisijungė prie žaidimo!",
			"msg_move": "{player} atliko ėjimą."
		}
	},
	"cmd_manager": {
		"banned": {
			"msg": "Negalite naudoti šios komandos, nes buvote užblokuotas. Priežastis:",
			"contest": "Norėdami užginčyti šį sprendimą, prisijunkite prie palaikymo serverio: {contestUrl}"
		},
		"missing_emojis_perm": "🚨 Norėdami naudoti šią komandą, suteikite {everyone} (ne robotui) leidimą `Naudoti išorinius jaustukus`.",
		"denied_perm": {
			"guild": "",
			"channel": "",
			"guild_and_channel": ""
		}
	},
	"cmd": {
		"anon": {
			"description": "Perjungia anoniminį režimą: kiti žmonės negali matyti jūsų statistikos ir jūsų vardo pirmaujančiųjų sąraše.",
			"on": "Dabar esate anoniminis, niekas negali matyti jūsų statistikos ir jūsų vardo pirmaujančiųjų sąraše.",
			"off": "Tu jau nebe anonimas."
		},
		"claim": {
			"description": "Tvirtina pergalę. Naudinga, kai varžovas nebenori žaisti ir nepasiduoda.",
			"game_id_description": "Žaidimo, kurį norite pareikšti, ID",
			"no_opponent": "Šiame žaidime esi vienas.",
			"no_move": "Palaukite, kol jūsų priešininkas atliks bent vieną judesį.",
			"your_turn": "Jūsų ėjimas.",
			"wait": "Palaukite, kol priešininkas atliks ėjimą. Jei jūsų priešininkas yra neaktyvus 24 valandas, galite reikalauti pergalės."
		},
		"disc": {
			"description": "Leidžia pasirinkti žaidimo metu naudojamus diskus.",
			"embed": {
				"title": "Diskai",
				"description0": "Pasirinka savo pagrindini diska.",
				"description1": "Pasirinka savo pagrindini diska.",
				"current_main": "Dabartinis pagrindinis diskas",
				"current_secondary": "Dabartinis antras diskas"
			}
		},
		"delete-data": {
			"description": "Ištrina visus `Connect 4` duomenis, pvz., taškus, reitingą ir kt. Tai negrįžtama.",
			"not_registered": "Jūs nesate registruotas duomenų bazėje.",
			"confirm": {
				"msg": "Ar tikrai norite ištrinti VISUS savo duomenis iš Connect 4 duomenų bazės? Tai negrįžtama.",
				"btn": "patvirtinti"
			},
			"validation": "Aš tave pamiršau. 💔"
		},
		"game_action": {
			"format_error": "{arg} nėra galiojantis žaidimo ID. Turite naudoti tik skaitmenis.",
			"game_not_found": "Jūs nepradėjote jokio žaidimo su ID `{gameId}`.",
			"game_terminated": "Šis žaidimas nutraukiamas."
		},
		"help": {
			"description": "Rodo kiekvienos komandos aprašymą.",
			"embed": {
				"title": "Pagalba",
				"section": {
					"game": "Žaidimo komandos",
					"utility": "Naudingumo komandos",
					"customization": "Tinkinimo komandos",
					"management": "Boto valdymas"
				},
				"management_info": ""
			}
		},
		"invite": {
			"description": "Siusk nuorodą, kad pakviestum mane į savo serverį.",
			"text": "Spustelėkite apatini esantį mygtuką, kad pakviestumėte mane į savo serverį. 🤖",
			"btn_title": "pakviesti"
		},
		"lead": {
			"description": "Rodo lyderių lentelę.",
			"global": {
				"description": "Rodo lyderių lentelę.",
				"no_ranked": "Nera lyderių lenteles.",
				"embed_title": "Pasaulinis lyderių sąrašas"
			},
			"guild": {
				"description": "Rodo serverio lyderių lentelę.",
				"no_ranked": "Šiame serveryje nėra reitinguotų žaidėjų.",
				"embed_title": "Lyderių lentelė iš {guild}",
				"not_in_guild": "Šią komandą turite naudoti serverio kanale. Jei norite matyti pasaulinę lyderių lentelę, įveskite {lead_global_cmd}"
			},
			"embed_field": {
				"value": "elo: {elo}"
			}
		},
		"list": {
			"description": "Pateikiamas visų nebaigtų žaidimų sąrašas. Žaidimai, kuriuose priešininkas dar neprisijungė, sąraše nėra.",
			"no_games": "Neturite nebaigtų žaidimų (nekreipiate dėmesio į žaidimus, kuriuose neprisijungė joks varžovas).",
			"embed": {
				"title": "Nebaigti žaidimai",
				"your_turn": "prieš {opponent} {separator} tavo eilė",
				"his_turn": "prieš {opponent} {separator} tavo eilė"
			}
		},
		"money": {
			"description": "Rodo savo piniginę ir duoda keletą patarimų, kaip gauti daugiau pinigų.",
			"embed": {
				"wallet": "Piniginė",
				"tip1": {
					"title": "Kaip gauti pinigu?",
					"text": "Laimėk daugiau žaidimų. Iš esmės, git gud."
				},
				"tip2": {
					"title": "Kaip gauti net DAUGIAU pinigų?",
					"text": "Balsuokite už bota ant {voteUrl}. Kiekvieną dieną iš eilės, kai balsuosite, gausite vis daugiau pinigų."
				}
			}
		},
		"play": {
			"description": "Pradeda naują žaidimą. Jei nario nėra, prisijungti gali bet kas.",
			"opponent_description": "zmogus, su kuriuo norite žaisti",
			"quota": "Negalite pradėti daugiau nei {smart_count} žaidimų per 24 val.",
			"opponent_is_bot": "Jūs negalite žaisti prieš botą (pralaimėtumėte)."
		},
		"resume": {
			"description": "Tęsia žaidimą nurodytu ID (vėl siunčia pranešimą, kuriuo galite bendrauti).",
			"game_id_description": "Žaidimo, kurį norite pratesti, ID"
		},
		"rules": {
			"description": "Rodomos žaidimo taisyklės ir paaiškinama, kaip veikia reitingavimo sistema.",
			"embed": {
				"title": "Taisykles",
				"game": {
					"title": "Žaidimo taisykles",
					"text": "`Connect 4` žaidimas yra tikrai paprastas. Norėdami laimėti, turite sulygiuoti 4 savo spalvos žetonus ant 7⨉6 lentos. Neleiskite savo priešininkui laimėti blokuodami jo linijas. Pradėkite žaidimą naudodami komandą {play_cmd}, tada naudokite mygtukus, kad galėtumėte žaisti konkrečiame stulpelyje. Stebėkite savo taškus naudodami komandą {stats_cmd}, o peržiūrėkite lyderių lentelę naudodami komandą {lead_cmd}."
				},
				"fair_play": {
					"title": "Priemonė prieš sąžiningą žaidimą",
					"text": "Jei jūsų varžovas pralaimi ir nebenori žaisti ar pralaimėti, palikite jam 24 valandas atlikti ėjimą. Jei po šio delsimo jie vis dar neaktyvūs, galite gauti pergalę ir rinkti taškus naudodami komandą {claim_cmd}."
				},
				"ranking": {
					"title": "Reitingavimo sistema",
					"text": "Reitingavimo sistema yra elo reitingų sistemos, tiksliau FIDE reitingo, įgyvendinimas.\n• Visi žaidėjai turi taškus, pavadintus elo.\n• Jūsų taškai prasideda nuo kitų žaidėjų taškų vidurkio (apie 1000 taškų).\nKai žaidimas baigiamas, sistema įvertina jūsų šansą laimėti: `1 / (1 + 10^((oponentas_elo - tavo_elo) / 400))`.\nTada sistema pakeičia jūsų taškus tokia suma: `K ⨉ (balas – laimėjimo_ tikimybė)`.\n`Taškas` vertas `1` už pergalę, `0,5` už lygiąsias ir `0` už pralaimėjimą.\n`K` apskaičiuojamas taip:\n• 40 naujiems žaidėjams (30 ar mažiau žaidimų), kol jų reitingas nesiekia 2300.\n• 20 žaidėjams, kurių reitingas visada mažesnis nei 2400.\n• 10 žaidėjams, kurių reitingas ne mažesnis kaip 2400 (šiuo metu arba anksčiau) ir daugiau nei 30 žaidimų. Po to jis nuolat išlieka 10."
				}
			}
		},
		"server-conf": {
			"description": "",
			"lang": {
				"description": "",
				"title": ""
			},
			"img": {
				"description": "",
				"title": "",
				"default": "",
				"invalid_url": "",
				"not_img": "",
				"ok": "",
				"win_preview": "",
				"tie_preview": ""
			}
		},
		"shop": {
			"description": "Rodo parduotuvę, kurioje galima nusipirkti naujų diskų.",
			"coins": "monetos",
			"gems": "brangakmeniai",
			"embed": {
				"title": "Parduotuvė",
				"wallet": "Piniginė:",
				"items": "Daiktai:",
				"howto_coins": {
					"title": "Kaip gauti 🪙?",
					"text": "Monetų gausite laimėdami žaidimus arba balsuodami už robotą top.gg ({topggUrl}). Kiekvieną dieną iš eilės, kai balsuosite, gausite vis daugiau pinigų."
				},
				"howto_gems": {
					"title": "Kaip gauti 💎?",
					"text": "Padėkite projektui klestėti palaikydami jį Ko-fi ❤️ ({shopUrl})"
				},
				"available": "{disc}: Pirkite už {symbol} {price}",
				"insufficient_coins": "{disc}: pirkit už {symbol} {price} (jūs neturite pakankamai {currency})",
				"translator_disc": "{disc}: Padėkite išversti robotą į savo kalbą ❤ (daugiau informacijos spustelėkite boto piktogramą)️",
				"sold": "{disc}: ✅ Šį jau turite."
			}
		},
		"stats": {
			"description": "Rodo nurodyto žaidėjo statistiką. Jei žaidėjas nėra duotas, rodoma jūsų statistika.",
			"user_description": "vartotojas, iš kurio norite gauti statistiką",
			"anonymous": "Šis vartotojas nenori dalytis savo informacija.",
			"not_ranked": {
				"you": "Norėdami gauti reitingą, turite nutraukti žaidimą.",
				"he": "Šis žaidėjas turi nutraukti žaidimą, kad būtų reitinguojamas."
			},
			"embed": {
				"title": "{displayName}'s statistika",
				"rank": "reitingas",
				"elo": "elo",
				"win_rate": "pergalių procentas",
				"wins": "pergalės",
				"loses": "pralaimejimai",
				"ties": "lygusios",
				"games": "žaidimai"
			}
		},
		"support": {
			"description": "Siunčia nuorodą prisijungti prie palaikymo serverio.",
			"no_server": "Palaikymo serverio nėra."
		}
	},
	"dashboard": {
		"translation_progress": "{locale} ({progress}% išversta)",
		"translation_contribution": "Nematai savo kalbos? Prisijunkite prie {discord_link_start}Discord serverio{discord_link_end} ir tapkite {crowdin_link_start}Crowdin{crowdin_link_end} vertėju ❤️",
		"win_img": "Laimėjimo vaizdo URL:",
		"tie_img": "Lygesiu vaizdo URL:"
	}
}
