{
	"locale_name": "Polski",
	"utils": {
		"unknown_user": "nieznany",
		"anonymous": "anonimowy",
		"deleted": "usunięto",
		"maintenance": "🚧 Jestem w trakcie konserwacji. Wkrótce się zamknę 🚧",
		"colon": ":"
	},
	"game": {
		"board": "Plansza",
		"game_id": "ID gry",
		"turn": "Tura",
		"whoever_join": "Ktokolwiek by chciał dołączyć",
		"tie": "Jest remis!",
		"win": "{winner} wygrał(a)!",
		"win_forfeit": "{winner} wygrał(a) przez zrezygnację!",
		"elo": "punkty",
		"coins": "{count, plural, =1{moneta} other{monety}}",
		"forfeit": "zrezygnuj",
		"cancel": "anuluj",
		"cancel_progress": "anuluj (1/2)",
		"archived": "Jeden lub więcej graczy w tej grze zostało usuniętych. Gra jest teraz zamrożona."
	},
	"subscription": {
		"player": {
			"error_self": "Nie możesz subskrybować, gdy grasz przeciwko siebie.",
			"on": "Teraz otrzymasz DM (jeśli ich nie zablokowałeś/aś) kiedy przeciwnik wykona ruch! Kliknij ponownie dzwonek 🔔, aby anulować.",
			"msg_cancel": "{player} chce anulować ostatni ruch.",
			"msg_forfeit": "{player} przepadł(a). Wygrałeś/aś! 🎉",
			"msg_win": "{player} wygrał(a) grę. 😞",
			"msg_tie": "{player} i ty zremisowaliście."
		},
		"spectator": {
			"on": "Otrzymasz teraz DM (jeśli nie zablokowałeś/aś) kiedy gracz wykona ruch! Kliknij ponownie dzwonek 🔔aby anulować.",
			"msg_win": "{player} wygrał(a) grę!",
			"msg_tie": "{player0} i {player1} zremisowali."
		},
		"common": {
			"off": "Nie otrzymujesz już DM za tą grę.",
			"join": "{player} dołączył(a) do gry!",
			"msg_move": "{player} zrobił(a) ruch."
		}
	},
	"cmd_manager": {
		"banned": {
			"msg": "Nie możesz użyć tej komendy, ponieważ zostałeś/aś zbanowany/a. Powód:",
			"contest": "Aby zakwestionować tę decyzję, dołącz do serwera wsparcia: {contestUrl}"
		},
		"missing_emojis_perm": "🚨 Aby użyć tej komendy, proszę daj {everyone} (nie robot) uprawnienia `Użyj zewnętrznej Emojis`.",
		"denied_perm": {
			"guild": "ℹ️ Brak uprawnień w ustawieniach serwera.",
			"channel": "ℹ️ Brak uprawnień w ustawieniach kanału.",
			"guild_and_channel": "ℹ️ Brak uprawnień w ustawieniach kanału i serwera."
		}
	},
	"cmd": {
		"anon": {
			"description": "Przełącza tryb Anonimowy: inni nie widzą twoich statystyk i imienia w tablicy wyników.",
			"on": "Jesteś teraz anonimowy/a, nikt nie widzi Twoich statystyk i Twojego imienia w tablicy wyników.",
			"off": "Już nie jesteś anonimowy/a."
		},
		"claim": {
			"description": "Żąda zwycięstwo. Przydatne, gdy twój przeciwnik nie chce grać, ale nie rezygnuje.",
			"game_id_description": "ID gry, które żądasz",
			"no_opponent": "Jesteś sam(a) w tej grze.",
			"no_move": "Poczekaj, aż twój przeciwnik zrobi co najmniej jeden ruch.",
			"your_turn": "Twoja kolej.",
			"wait": "Poczekaj, aż twój przeciwnik zrobi ruch. Jeśli twój przeciwnik jest nieaktywny przez okres 24 godzin, możesz odebrać zwycięstwo."
		},
		"disc": {
			"description": "Pozwala wybrać żetony używane podczas gry.",
			"embed": {
				"title": "Żetony",
				"description0": "Wybierz twój główny żeton.",
				"description1": "Wybierz swój drugi żeton.",
				"current_main": "Bieżący główny żeton",
				"current_secondary": "Bieżący drugi żeton"
			}
		},
		"delete-data": {
			"description": "Usuwa wszystkie dane Connect 4 takie jak Twoje punkty, twoja ranga itp. To jest nieodwracalne.",
			"not_registered": "Nie jesteś zarejestrowany/a w bazie danych.",
			"confirm": {
				"msg": "Czy na pewno chcesz usunąć WSZYSTKIE twoje dane Connect 4? To jest nieodwracalne.",
				"btn": "potwierdź"
			},
			"validation": "Zapomniałem cię. 💔"
		},
		"game_action": {
			"format_error": "{arg} nie jest prawidłowym ID gry. Możesz korzystać tylko z cyfr.",
			"game_not_found": "Nie rozpocząłeś żadnej gry z ID `{gameId}`.",
			"game_terminated": "Ta gra została zakończona."
		},
		"help": {
			"description": "Wyświetla opis każdego polecenia.",
			"embed": {
				"title": "Pomoc",
				"section": {
					"game": "Polecenia gry",
					"utility": "Komendy użyteczności",
					"customization": "Polecenia personalizacji",
					"management": "Zarządzanie robotem"
				},
				"management_info": ""
			}
		},
		"invite": {
			"description": "Wysyła link do zaproszenia mnie na Twoim serwerze.",
			"text": "Kliknij przycisk poniżej, aby zaprosić mnie na swój serwer. 🤖",
			"btn_title": "zaproś"
		},
		"lead": {
			"description": "Wyświetla tablicę wyników.",
			"global": {
				"description": "Wyświetla globalną tablicę wyników.",
				"no_ranked": "Nie ma graczy rankingowych.",
				"embed_title": "Globalny ranking"
			},
			"guild": {
				"description": "Wyświetla tablicę wyników serwera.",
				"no_ranked": "Nie ma graczy rankingowych na tym serwerze.",
				"embed_title": "Tablica wyników dla {guild}",
				"not_in_guild": "Musisz użyć tej komendy na kanale serwera. Jeśli chcesz zobaczyć globalny typ {lead_global_cmd}"
			},
			"embed_field": {
				"value": "punkty: {elo}"
			}
		},
		"list": {
			"description": "Lista wszystkich twoich nieukończonych gier. Gry, w których przeciwnik nie dołączył jeszcze nie są na liście.",
			"no_games": "Nie masz żadnych nieukończonych gier (ignorując gry, do których nie dołączył żaden przeciwnik).",
			"embed": {
				"title": "Nieukończone gry",
				"your_turn": "przeciwko {opponent} {separator} twojej turze",
				"his_turn": "przeciwko {opponent} {separator} niego turza"
			}
		},
		"money": {
			"description": "Pokazuje Twój portfel i daje kilka wskazówek, aby uzyskać więcej pieniędzy.",
			"embed": {
				"wallet": "Portfel",
				"tip1": {
					"title": "Jak zdobyć pieniądze?",
					"text": "Wygraj więcej gier. Podstawowy, git git."
				},
				"tip2": {
					"title": "Jak zdobyć nawet pieniądze MOAR?",
					"text": "Głosuj na robota w {voteUrl}. Każdego kolejnego dnia, w którym głosujesz otrzymasz więcej pieniędzy."
				}
			}
		},
		"play": {
			"description": "Rozpoczyna nową grę. Jeśli nie podano żadnego użytkownika, każdy może dołączyć.",
			"opponent_description": "użytkownik, z którym chcesz grać",
			"quota": "Nie możesz rozpocząć więcej niż {smart_count} gier w ciągu 24 godzin.",
			"opponent_is_bot": "Nie możesz grać przeciwko botowi (stracisz)."
		},
		"resume": {
			"description": "Wznawia grę z określonym ID (wysyła ponownie wiadomość, na którym możesz interakcji).",
			"game_id_description": "ID gry, chcesz wznowić"
		},
		"rules": {
			"description": "Wyświetla reguły gry i wyjaśnia jak działa system rankingowy.",
			"embed": {
				"title": "Zasady",
				"game": {
					"title": "Reguła gry",
					"text": "Gra Czwórki jest naprawdę prosta. Aby wygrać, musisz wyrównać cztery żetony swojego koloru na płycie 7⨉6. Zapobiegaj przeciwnikowi wygraniu przez blokowanie ich linie. Rozpocznij grę z komendą {play_cmd} i potem użyj guzików to grania w specjalnych kolumn. Przyglądaj się swoimi oczami na twoje żetony z komandą {stats_cmd} i zobacz na tablicę wyników używać komandę {lead_cmd}."
				},
				"fair_play": {
					"title": "Wymierzony przeciwko grze przeciwnej",
					"text": "Jeśli twój przeciwnik przegra i nie chce już grać ani przepadać, pozostaw 24 godziny na ruch. Jeśli po tym opóźnieniu są nadal nieaktywne, możesz odebrać zwycięstwo i zebrać swoje punkty za pomocą polecenia {claim_cmd}."
				},
				"ranking": {
					"title": "System rankingowy",
					"text": "System rankingu to wdrożenie systemu ratingu elo, a konkretnie uprawnienia FIDE.\n• Wszyscy gracze mają punkty o nazwie punkty.\n• Twoje punkty zaczynają się od średniej z punktów innych graczy (około 1000 punktów).\nPo zakończeniu gry system ocenia Twoją szansę wygrania: `1 / (1 + 10^((wroga_Punkty - twoje_Punkty) / 400)`.\nNastępnie system zmienia Twoje punkty według następującej kwoty: `K ⨉ (wynik - szansa_of_winning)`.\nWartość `score` jest warta `1` aby wygrać, `0.5` dla krawędzi i `0` dla luz.\n`K` jest obliczany w następujący sposób:\n• 40 dla nowych graczy (30 gier lub mniej), dopóki ich ocena pozostaje poniżej 2300.\n• 20 dla graczy o rankingu zawsze poniżej 2400.\n• 10 dla graczy o rankingu co najmniej 2400 (obecnie lub wcześniej) i ponad 30 partii. Następnie utrzymuje się on na stałe na poziomie 10."
				}
			}
		},
		"server-conf": {
			"description": "Umożliwia konfigurację bota dla serwera.",
			"lang": {
				"description": "Ustaw język bota.",
				"title": "Wybór języka"
			},
			"img": {
				"description": "Modyfikuj grę nad zdjęciami.",
				"title": "Konfiguracja obrazów pod koniec gry",
				"default": "👌 domyślny obraz",
				"invalid_url": "🛑 To nie wygląda na poprawny adres URL. Używany będzie obraz domyślny.",
				"not_img": "⚠️ Ten adres URL nie prowadzi do obrazu (obraz musi się kończyć z .png, .jpg, .jpeg lub .gif). Upewnij się, że adres wskazuje do **obrazu**, a nie **strony** z obrazem. Kiedy klikniesz prawym przyciskiem myszy na obraz, powinieneś zobaczyć opcje \"Kopiuj adres zdjęcia\". Jeżeli zdjęcie jest widoczne pod tą wiadomością, wszystko jest OK!",
				"ok": "👍 Wygląda wszystko w porządku. Upewnij się, że obraz jest prawidłowo wyświetlony poniżej:",
				"win_preview": "Podgląd obrazu zwycięstwa",
				"tie_preview": "Podgład obrazu remisu"
			}
		},
		"shop": {
			"description": "Wyświetla sklep do kupowania nowych dysków.",
			"coins": "monety",
			"gems": "klejnoty",
			"embed": {
				"title": "Sklep",
				"wallet": "Portfel:",
				"items": "Przedmioty:",
				"howto_coins": {
					"title": "Jak dostać pieniądze 🪙?",
					"text": "Otrzymujesz monety, wygrywając gry lub głosując na robota na top.gg ({topggUrl}). Każdego dnia, w którym głosujesz, otrzymujesz coraz więcej i więcej pieniędzy."
				},
				"howto_gems": {
					"title": "Jak dostać 💎?",
					"text": "Pomóż rozwijać projekt wspierając go na Ko-fi ❤️ ({shopUrl})"
				},
				"available": "{disc}: Kup to za {symbol} {price}",
				"insufficient_coins": "{disc}: Kup to za {symbol} {price} (nie masz wystarczająco {currency})",
				"translator_disc": "{disc}: Pomóż w tłumaczeniu bota na twój język ❤ (kliknij ikonę bota, aby uzyskać więcej informacji)",
				"sold": "{disc}: ✅ Masz już ten element."
			}
		},
		"stats": {
			"description": "Pokazuje statystyki danego gracza. Jeśli nie podano gracza, pokazuje twoje statystyki.",
			"user_description": "użytkownika, od którego chcesz statystyki",
			"anonymous": "Ten użytkownik nie chce udostępniać swoich informacji.",
			"not_ranked": {
				"you": "Musisz zakończyć grę, aby być rankingowym.",
				"he": "Ten gracz musi zakończyć grę, aby być rankingowy."
			},
			"embed": {
				"title": "{displayName} Statystyki",
				"rank": "ranga",
				"elo": "punkty",
				"win_rate": "ilość wygranych",
				"wins": "wygrane",
				"loses": "przegrane",
				"ties": "remis",
				"games": "gry"
			}
		},
		"support": {
			"description": "Wysyła link, aby dołączyć do serwera wsparcia.",
			"no_server": "Nie ma serwera wsparcia."
		}
	},
	"dashboard": {
		"translation_progress": "{locale} (przetłumaczone {progress}%)",
		"translation_contribution": "Nie widzisz swój język? Dołącz {discord_link_start}serwera discorda{discord_link_end} i zostań tłumaczem {crowdin_link_start}Crowdin {crowdin_link_end} ❤️",
		"win_img": "Wygraj URL zdjęcia:",
		"tie_img": "Adres URL obrazu powiązania:"
	}
}
